…
What makes speeches unique

At least using the bag-of-words paradigm, the term-frequency * inverse-document-frequency (TF-IDF) analysis is used to determine what words set speeches (or other documents) apart from each other. A word in a given document has a high TF-IDF score if it appears very often in that speech, but rarely in others. If a word appears less frequently in a speech, or appears more often in other speeches, that will lower the TF-IDF score. Thus, a word with a high TF-IDF score can be considered a signature word for a speech Using this strategy for all interesting words, we can compare styles of speeches, and even cluster them into groups.

First, we use the bind_tf_idf function from tidytext to calculate the TF-IDF score. Then we can find the words with the highest TF-IDF score - the words that do the most to distinguish one inauguration speech from another.

speech_words2 <- speech_words %>%
  bind_tf_idf(word, id, n)
speech_words2

## # A tibble: 34,734 x 7
##        id         word     n total          tf        idf       tf_idf
##    <fctr>        <chr> <int> <int>       <dbl>      <dbl>        <dbl>
##  1     26        power    47  8463 0.015254787 0.21029541 0.0032080118
##  2     27   government    47  4813 0.024697846 0.09015110 0.0022265379
##  3     26       people    38  8463 0.012333658 0.03509132 0.0004328043
##  4     26 constitution    36  8463 0.011684518 0.44952510 0.0052524841
##  5     26   government    36  8463 0.011684518 0.09015110 0.0010533721
##  6     48   government    33  3766 0.021512386 0.09015110 0.0019393652
##  7     27        union    32  4813 0.016815554 0.62645581 0.0105342017
##  8     38       people    29  4397 0.016782407 0.03509132 0.0005889168
##  9     26     citizens    27  8463 0.008763389 0.09015110 0.0007900291
## 10     67      freedom    27  2084 0.030927835 0.47692407 0.0147502290
## # ... with 34,724 more rows

speech_words2 %>%
  select(-total) %>%
  arrange(desc(tf_idf))

## # A tibble: 34,734 x 6
##        id        word     n         tf      idf     tf_idf
##    <fctr>       <chr> <int>      <dbl>    <dbl>      <dbl>
##  1     14      arrive     1 0.01851852 4.060443 0.07519339
##  2     14 upbraidings     1 0.01851852 4.060443 0.07519339
##  3     14   incurring     1 0.01851852 3.367296 0.06235733
##  4     14    violated     1 0.01851852 3.367296 0.06235733
##  5     14   willingly     1 0.01851852 3.367296 0.06235733
##  6     14 injunctions     1 0.01851852 2.961831 0.05484872
##  7     14   knowingly     1 0.01851852 2.961831 0.05484872
##  8     14    previous     1 0.01851852 2.961831 0.05484872
##  9     14   witnesses     1 0.01851852 2.961831 0.05484872
## 10     14     besides     1 0.01851852 2.674149 0.04952127
## # ... with 34,724 more rows
…
